…
# Print the table
print(nyc_rental_yearly)
```

    ## # A tibble: 30 × 3
    ##    borough   year avg_rent_price
    ##    <chr>    <dbl>          <dbl>
    ##  1 Brooklyn  2015          2539.
    ##  2 Brooklyn  2016          2617.
    ##  3 Brooklyn  2017          2659.
    ##  4 Brooklyn  2018          2704.
    ##  5 Brooklyn  2019          2814.
    ##  6 Brooklyn  2020          2787.
    ##  7 Brooklyn  2021          2817.
    ##  8 Brooklyn  2022          3309.
    ##  9 Brooklyn  2023          3496.
    ## 10 Brooklyn  2024          3610.
    ## # ℹ 20 more rows
…
